INDEX VERSION 1.130+D:\kewin\miBand\.metadata\.plugins\org.eclipse.jdt.core
2912746614.index
3693261185.index
1532686317.index
4041310473.index
2956378016.index
309027906.index
2121373004.index
1217835696.index
1323081805.index
1044131530.index
1055679481.index
592600685.index
2429332019.index
2433079368.index
2138945080.index
421022922.index
3154048368.index
4232500288.index
2822636199.index
1327536255.index
3786837555.index
3329513093.index
3893857330.index
333581641.index
1208968353.index
3808123788.index
2460542804.index
3644024503.index
1979892986.index
1359798156.index
447252094.index
656037648.index
315890579.index
3429584041.index
720470870.index
4254420981.index
3912433663.index
606042697.index
3229196760.index
1559801527.index
331736490.index
2880801961.index
2145524845.index
1230538165.index
2441430928.index
3648186771.index
3920855638.index
2477607646.index
3449319770.index
2787869966.index
2747115721.index
2222545399.index
2916426105.index
115686605.index
831972441.index
1302185684.index
2587139352.index
3781896808.index
3449305861.index
3246912865.index
3225844070.index
730760977.index
2692035760.index
2632216177.index
2264552841.index
887986259.index
1893291216.index
3983567084.index
660037380.index
1385856601.index
224605145.index
378571480.index
2844841358.index
3947521672.index
1484701636.index
4205186684.index
4109610821.index
2930475436.index
4202602495.index
3699331469.index
406735757.index
2052989908.index
347729377.index
321598619.index
120286219.index
1580166048.index
491453964.index
3024640623.index
3139136163.index
3431158451.index
1536122679.index
2445448158.index
1440634920.index
1555734937.index
783300143.index
211334296.index
214146598.index
507869743.index
654224024.index
3664623906.index
3423080625.index
470953983.index
229561320.index
825894406.index
801943803.index
438217807.index
1189651788.index
1181488049.index
2098151948.index
1249003375.index
2589955883.index
1750095689.index
2646448708.index
179370282.index
1860642593.index
3637040476.index
1329257546.index
