<?xml version="1.0" encoding="UTF-8"?>
<session version="1.0">
<refactoring comment="Delete resource &apos;band&apos;" deleteContents="false" description="Delete resource &apos;band&apos;" element1="/band" flags="7" id="org.eclipse.ltk.core.refactoring.delete.resources" resources="1" stamp="1526332294152"/>
</session>